full_adder/full_adder_data.vcd
$date
	Mon Nov 20 21:13:00 2023
$end
$version
	Icarus Verilog
$end
$timescale
	1s
$end
$scope module full_adder_tb $end
$scope module uut $end
$var wire 1 ! a $end
$var wire 1 " b $end
$var wire 1 # c $end
$var wire 1 $ cout $end
$var wire 1 % sum $end
$upscope $end
$upscope $end
$enddefinitions $end
$comment Show the parameter values. $end
$dumpall
$end
#0
$dumpvars
0%
0$
0#
0"
0!
$end
#10
1%
1#
#20
0#
1"
#30
1$
0%
1#
#40
0$
1%
0#
0"
1!
#50
1$
0%
1#
#60
0#
1"
#70
1%
1#
